…
## Examiner Art Unit average gender representation

``` r
art_unit_gender_avg <- applications %>%
  drop_na(examiner_id) %>%
  group_by(examiner_art_unit, gender, .drop = TRUE) %>%
  summarize(average = n(), .groups = "drop") %>%
  group_by(examiner_art_unit, .drop = TRUE) %>%
  mutate(percentage = average/sum(average) * 100, .groups = "drop")
print(art_unit_gender_avg)
```

    ## # A tibble: 851 × 5
    ## # Groups:   examiner_art_unit [290]
    ##    examiner_art_unit gender average percentage .groups
    ##                <dbl> <chr>    <int>      <dbl> <chr>  
    ##  1              1600 female      22      21.8  drop   
    ##  2              1600 male        79      78.2  drop   
    ##  3              1609 female      22      40.7  drop   
    ##  4              1609 male        28      51.9  drop   
    ##  5              1609 <NA>         4       7.41 drop   
    ##  6              1611 female    4333      62.4  drop   
    ##  7              1611 male      2524      36.4  drop   
    ##  8              1611 <NA>        85       1.22 drop   
    ##  9              1612 female    3145      34.4  drop   
    ## 10              1612 male      4944      54.1  drop   
    ## # ℹ 841 more rows
…
## Identifying top 25 AU scoring highest on segregation index

``` r
top_25_segregated_units <- art_unit_gender_segregation %>%
  arrange(desc(segregation_index)) %>%
  head(25)
print(top_25_segregated_units)
```

    ## # A tibble: 25 × 2
    ##    examiner_art_unit segregation_index
    ##                <dbl>             <dbl>
    ##  1              2403             1    
    ##  2              2100             0.957
    ##  3              2111             0.839
    ##  4              1736             0.830
    ##  5              1700             0.82 
    ##  6              2427             0.809
    ##  7              2491             0.795
    ##  8              2183             0.790
    ##  9              2415             0.782
    ## 10              2112             0.780
    ## # ℹ 15 more rows

``` r
top_25_least_segregated_units <- art_unit_gender_segregation %>%
  arrange(segregation_index) %>%
  head(25)
print(top_25_least_segregated_units)
```

    ## # A tibble: 25 × 2
    ##    examiner_art_unit segregation_index
    ##                <dbl>             <dbl>
    ##  1              2171             0.336
    ##  2              1622             0.336
    ##  3              1641             0.338
    ##  4              1632             0.338
    ##  5              2179             0.339
    ##  6              1672             0.341
    ##  7              2168             0.342
    ##  8              2162             0.345
    ##  9              1676             0.348
    ## 10              1709             0.349
    ## # ℹ 15 more rows
…
